…
Our data *still* isn’t quite in the tidy form I want (though it does
make for a nice, concise-looking table). Let’s `pivot_longer()` to make
the type of injury a variable/column.

``` r
tidy_inj_body_region <- inj_body_region2 %>%
  pivot_longer(!body_region, names_to = "injury", values_to = "count")

tidy_inj_body_region
#> # A tibble: 24 x 3
#>    body_region   injury                 count
#>    <chr>         <chr>                  <dbl>
#>  1 Arm           burns                    800
#>  2 Arm           contusions_lacerations   100
#>  3 Arm           fractures_sprains        300
#>  4 Arm           other_diagnoses          100
#>  5 Eye           burns                    200
#>  6 Eye           contusions_lacerations   500
#>  7 Eye           fractures_sprains          0
#>  8 Eye           other_diagnoses          700
#>  9 Head/Face/Ear burns                    500
#> 10 Head/Face/Ear contusions_lacerations   900
#> # … with 14 more rows
```
…
